Collapse variable into groups and sum — add_grps • camiller
…
    Value

    A data frame/tibble with sums of estimate. Retains grouping columns

    Examples

edu_list <- list(ages25plus = 1, less_than_high_school = 2:16,
    high_school = 17:18, some_college_or_aa = 19:21, bachelors_plus = 22:25)

edu_detail %>%
  dplyr::group_by(name) %>%
  add_grps(edu_list, group = variable, value = estimate, moe = moe)
#> # A tibble: 25 x 4
#> # Groups:   name [5]
#>    name       variable              estimate   moe
#>    <chr>      <fct>                    <dbl> <dbl>
#>  1 Bethany    ages25plus                4013   148
#>  2 Bethany    less_than_high_school      120    83
#>  3 Bethany    high_school                866   177
#>  4 Bethany    some_college_or_aa        1053   208
#>  5 Bethany    bachelors_plus            1974   257
#>  6 East Haven ages25plus               21230   490
#>  7 East Haven less_than_high_school     2380   363
#>  8 East Haven high_school               8612   554
#>  9 East Haven some_college_or_aa        5334   511
#> 10 East Haven bachelors_plus            4904   468
#> # … with 15 more rows
…
