Make table of rates given a denominator — calc_shares • camiller
…
race_pops %>%
  calc_shares(name, group = variable, denom = "total",
              value = estimate, moe = moe)
#> # A tibble: 65 × 6
#>    name     variable estimate   moe  share sharemoe
#>    <chr>    <fct>       <dbl> <dbl>  <dbl>    <dbl>
#>  1 Bethany  total        5521    24 NA       NA    
#>  2 Bethany  white        4769   267  0.864    0.048
#>  3 Bethany  black          69    79  0.012    0.014
#>  4 Bethany  asian         313   118  0.057    0.021
#>  5 Bethany  latino        286   208  0.052    0.038
#>  6 Branford total       28084    28 NA       NA    
#>  7 Branford white       25096   435  0.894    0.015
#>  8 Branford black         349   165  0.012    0.006
#>  9 Branford asian        1211   304  0.043    0.011
#> 10 Branford latino       1033   285  0.037    0.01 
#> # … with 55 more rows
…
