ACS data workflow • camiller
…
Alternatively, show_uniq will print out the unique values of a column with their indexes, and return the original data frame unchanged. This is convenient for finding positions without having to break a workflow.

pov_age %>%
  show_uniq(age) %>%
  group_by(name, ratio)
#> 
#> 1: Under 6 years      2: 6 to 11 years      3: 12 to 17 years     
#> 4: 18 to 24 years     5: 25 to 34 years     6: 35 to 44 years     
#> 7: 45 to 54 years     8: 55 to 64 years     9: 65 to 74 years     
#> 10: 75 years and over
#> # A tibble: 1,690 × 5
#> # Groups:   name, ratio [169]
#>    name    age           ratio                     estimate   moe
#>    <chr>   <chr>         <chr>                        <dbl> <dbl>
#>  1 Bethany Under 6 years Poverty status determined      274   146
#>  2 Bethany Under 6 years Under .50                        0    17
#>  3 Bethany Under 6 years .50 to .74                       0    17
#>  4 Bethany Under 6 years .75 to .99                       8    15
#>  5 Bethany Under 6 years 1.00 to 1.24                     0    17
#>  6 Bethany Under 6 years 1.25 to 1.49                     0    17
#>  7 Bethany Under 6 years 1.50 to 1.74                    47    66
#>  8 Bethany Under 6 years 1.75 to 1.84                     0    17
#>  9 Bethany Under 6 years 1.85 to 1.99                     0    17
#> 10 Bethany Under 6 years 2.00 to 2.99                    20    23
#> # … with 1,680 more rows
…
